07:46:22.946 [AWT-EventQueue-0] INFO  c.b.l.BrowserStackRunExtension - gradle
07:46:22.947 [AWT-EventQueue-0] INFO  com.browserstack.utils.Helpers - null
07:46:40.937 [AWT-EventQueue-0] INFO  c.b.l.BrowserStackRunExtension - gradle
07:46:40.937 [AWT-EventQueue-0] INFO  com.browserstack.utils.Helpers - null
07:46:42.841 [ApplicationImpl pooled thread 34] INFO  c.b.l.BrowserStackRunExtension - spring boot
07:46:42.841 [ApplicationImpl pooled thread 34] INFO  com.browserstack.utils.Helpers - null
07:50:30.242 [AWT-EventQueue-0] INFO  c.b.l.BrowserStackRunExtension - gradle
07:50:30.242 [AWT-EventQueue-0] INFO  com.browserstack.utils.Helpers - null
07:50:30.840 [ApplicationImpl pooled thread 31] INFO  c.b.l.BrowserStackRunExtension - spring boot
07:50:30.840 [ApplicationImpl pooled thread 31] INFO  com.browserstack.utils.Helpers - null
07:50:46.009 [AWT-EventQueue-0] INFO  c.b.l.BrowserStackRunExtension - gradle
07:50:46.010 [AWT-EventQueue-0] INFO  com.browserstack.utils.Helpers - null
07:51:01.744 [AWT-EventQueue-0] INFO  c.b.l.BrowserStackRunExtension - gradle
07:51:01.744 [AWT-EventQueue-0] INFO  com.browserstack.utils.Helpers - null
07:51:24.018 [AWT-EventQueue-0] INFO  c.b.l.BrowserStackRunExtension - gradle
07:51:24.019 [AWT-EventQueue-0] INFO  com.browserstack.utils.Helpers - null
07:51:49.188 [AWT-EventQueue-0] INFO  c.b.l.BrowserStackRunExtension - gradle
07:51:49.188 [AWT-EventQueue-0] INFO  com.browserstack.utils.Helpers - null
07:53:03.775 [AWT-EventQueue-0] INFO  c.b.l.BrowserStackRunExtension - gradle
07:53:03.775 [AWT-EventQueue-0] INFO  com.browserstack.utils.Helpers - null
07:53:36.128 [AWT-EventQueue-0] INFO  c.b.l.BrowserStackRunExtension - gradle
07:53:36.129 [AWT-EventQueue-0] INFO  com.browserstack.utils.Helpers - null
07:53:55.382 [AWT-EventQueue-0] INFO  c.b.l.BrowserStackRunExtension - gradle
07:53:55.382 [AWT-EventQueue-0] INFO  com.browserstack.utils.Helpers - null
07:53:55.901 [ApplicationImpl pooled thread 44] INFO  c.b.l.BrowserStackRunExtension - spring boot
07:53:55.901 [ApplicationImpl pooled thread 44] INFO  com.browserstack.utils.Helpers - null
07:54:00.877 [AWT-EventQueue-0] INFO  c.b.l.BrowserStackRunExtension - gradle
07:54:00.877 [AWT-EventQueue-0] INFO  com.browserstack.utils.Helpers - null
07:54:29.953 [AWT-EventQueue-0] INFO  c.b.l.BrowserStackRunExtension - gradle
07:54:29.953 [AWT-EventQueue-0] INFO  com.browserstack.utils.Helpers - null
07:54:30.346 [ApplicationImpl pooled thread 48] INFO  c.b.l.BrowserStackRunExtension - spring boot
07:54:30.346 [ApplicationImpl pooled thread 48] INFO  com.browserstack.utils.Helpers - null
07:54:38.730 [AWT-EventQueue-0] INFO  c.b.l.BrowserStackRunExtension - gradle
07:54:38.730 [AWT-EventQueue-0] INFO  com.browserstack.utils.Helpers - null
